^D:\DEVELOP\PRACTICALWORK\PRACTICALWORK_7.4\PRACTICALWORK_7.4.CPP
D:\DEVELOP\PRACTICALWORK\PRACTICALWORK_7.4\X64\DEBUG\VC143.PDB
D:\DEVELOP\PRACTICALWORK\PRACTICALWORK_7.4\X64\DEBUG\VC143.IDB
D:\DEVELOP\PRACTICALWORK\PRACTICALWORK_7.4\X64\DEBUG\PRACTICALWORK_7.4.OBJ
